…
## generate datasets and repeat diff mu

``` r
output = vector('list', length = 5000)

for (i in 1:5000){
  output[[i]] = sim_ttest(mu = 0)
}

bind_rows(output)
```

    ## # A tibble: 5,000 × 2
    ##    mu_hat p_value
    ##     <dbl>   <dbl>
    ##  1  0.412  0.629 
    ##  2  0.664  0.368 
    ##  3  0.551  0.534 
    ##  4  0.567  0.487 
    ##  5 -1.65   0.0599
    ##  6  1.19   0.229 
    ##  7  0.334  0.738 
    ##  8 -1.19   0.209 
    ##  9  0.122  0.887 
    ## 10  0.684  0.472 
    ## # ℹ 4,990 more rows
…
